^C:\USERS\KISL3\SOURCE\REPOS\HOMEWORK_19\ANIMAL.CPP|C:\USERS\KISL3\SOURCE\REPOS\HOMEWORK_19\HOMEWORK_19.CPP
C:\USERS\KISL3\SOURCE\REPOS\HOMEWORK_19\DEBUG\VC142.PDB
C:\USERS\KISL3\SOURCE\REPOS\HOMEWORK_19\DEBUG\VC142.IDB
C:\USERS\KISL3\SOURCE\REPOS\HOMEWORK_19\DEBUG\HOMEWORK_19.OBJ
C:\USERS\KISL3\SOURCE\REPOS\HOMEWORK_19\DEBUG\ANIMAL.OBJ
^C:\USERS\KISL3\SOURCE\REPOS\HOMEWORK_19\ANIMAL.CPP
C:\USERS\KISL3\SOURCE\REPOS\HOMEWORK_19\DEBUG\VC142.PDB
^C:\USERS\KISL3\SOURCE\REPOS\HOMEWORK_19\HOMEWORK_19.CPP
C:\USERS\KISL3\SOURCE\REPOS\HOMEWORK_19\DEBUG\VC142.PDB
C:\USERS\KISL3\SOURCE\REPOS\HOMEWORK_19\DEBUG\VC142.IDB
C:\USERS\KISL3\SOURCE\REPOS\HOMEWORK_19\DEBUG\HOMEWORK_19.OBJ
